-47.95254898071289 -196.6575469970703 -67.52423858642578
-39.319454193115234 -202.79214477539062 -55.40974807739258
-28.73986053466797 -207.02401733398438 -50.82900619506836
-13.721502304077148 -212.15048217773438 -47.92533874511719
-2.6371371746063232 -212.38441467285156 -55.39680480957031
-14.17333984375 -209.35009765625 -57.58727264404297
-27.060632705688477 -209.51995849609375 -60.99758529663086
-39.362125396728516 -204.31288146972656 -66.18638610839844
65.0611572265625 -181.24465942382812 -65.83251190185547
61.45477294921875 -187.9249267578125 -64.61381530761719
50.02561569213867 -196.9957275390625 -59.525943756103516
36.21067428588867 -201.7165069580078 -58.09947967529297
27.760725021362305 -207.23049926757812 -56.7056770324707
36.64652633666992 -204.14508056640625 -46.95075225830078
50.46165466308594 -193.87806701660156 -49.03133010864258
61.73080062866211 -182.48780822753906 -54.64402770996094
-34.73193359375 -206.94119262695312 -79.2073745727539
-28.179819107055664 -211.3912811279297 -77.85324096679688
-21.34123992919922 -211.9049072265625 -76.24564361572266
-14.976350784301758 -210.78302001953125 -75.23971557617188
-6.632230281829834 -207.10833740234375 -74.94223022460938
-15.264114379882812 -210.9227752685547 -78.86642456054688
-22.461612701416016 -211.7942657470703 -81.5611343383789
-29.72878646850586 -209.6110382080078 -82.60012817382812
56.25673294067383 -194.4468994140625 -79.76588439941406
51.268131256103516 -199.66400146484375 -81.15226745605469
45.290008544921875 -202.75540161132812 -81.00601959228516
38.423221588134766 -203.34812927246094 -78.91380310058594
28.634109497070312 -201.57054138183594 -76.72289276123047
38.35054016113281 -202.6844940185547 -75.99598693847656
44.828582763671875 -202.2277374267578 -76.80896759033203
51.242549896240234 -200.2316131591797 -77.86763000488281
-21.809642791748047 -211.99960327148438 -77.01708221435547
45.5207633972168 -201.93540954589844 -77.52664947509766
21.622112274169922 -209.2455291748047 -73.14130401611328
28.17510223388672 -226.90438842773438 -92.14923858642578
34.21915817260742 -218.75498962402344 -101.17630004882812
31.799680709838867 -224.1983642578125 -108.57892608642578
25.72052764892578 -233.80320739746094 -102.3081283569336
16.828781127929688 -237.2664337158203 -109.55741882324219
4.147977828979492 -232.7766876220703 -102.55804443359375
-2.217729330062866 -227.8365936279297 -109.94364929199219
-4.454687595367432 -226.0906219482422 -101.62429809570312
3.0830414295196533 -231.1669464111328 -91.19615936279297
2.743523359298706 -211.5240478515625 -72.44432067871094
18.39548683166504 -248.17079162597656 -92.98503112792969
-12.19948959350586 -227.88430786132812 -134.92845153808594
-0.39095059037208557 -238.2926483154297 -126.2742691040039
9.787144660949707 -241.7228240966797 -122.16641998291016
16.997188568115234 -242.82626342773438 -123.7765121459961
24.276241302490234 -240.5961151123047 -122.28008270263672
32.90156555175781 -234.7821502685547 -126.34233093261719
40.221031188964844 -223.46389770507812 -134.2362518310547
30.875526428222656 -238.55551147460938 -135.70703125
17.52640724182129 -243.1858673095703 -135.3796844482422
2.630338430404663 -240.26707458496094 -135.23382568359375
5.145272731781006 -238.46900939941406 -129.1504364013672
16.502683639526367 -240.31472778320312 -128.87376403808594
28.068706512451172 -236.41444396972656 -129.03614807128906
5.215441703796387 -238.83726501464844 -130.2270965576172
16.60902976989746 -240.60757446289062 -129.6253204345703
28.245515823364258 -236.85597229003906 -129.7751007080078
-71.93437957763672 -142.17190551757812 -148.2554473876953
-61.244842529296875 -162.27870178222656 -164.3168487548828
-46.17314910888672 -190.4479522705078 -168.26010131835938
-23.25845718383789 -220.81642150878906 -168.65145874023438
-1.581936001777649 -239.58221435546875 -168.7866973876953
16.647144317626953 -241.99366760253906 -169.8000030517578
33.08595657348633 -234.9544677734375 -169.8000030517578
51.95073699951172 -205.1592559814453 -168.07667541503906
60.22867965698242 -188.93028259277344 -165.90347290039062
73.55059814453125 -142.45455932617188 -160.91793823242188
77.80973052978516 -128.0438232421875 -148.84666442871094
